Simplifies Plotting Data Inside Databases • dbplot
…
If a more customized plot is needed, the data the underpins the plots can also be accessed:

db_compute_bins() - Returns a data frame with the bins and count per bin

db_compute_count() - Returns a data frame with the count per discrete value

db_compute_raster() - Returns a data frame with the results per x/y intersection

db_compute_raster2() - Returns same as db_compute_raster() function plus the coordinates of the x/y boxes

db_compute_boxplot() - Returns a data frame with boxplot calculations

db_flights |>
  db_compute_bins(arr_delay) 
#> # A tibble: 28 × 2
#>    arr_delay  count
#>        <dbl>  <dbl>
#>  1      95.1   7890
#>  2     321.     232
#>  3     729.       5
#>  4     548.       6
#>  5     684.       1
#>  6     774.       6
#>  7    1000.       1
#>  8     -40.7 207999
#>  9      NA     9430
#> 10     276.     425
#> # ℹ 18 more rows
…
