…
1.  `db_compute_bins()` - Returns a data frame with the bins and count
    per bin
2.  `db_compute_count()` - Returns a data frame with the count per
    discrete value
3.  `db_compute_raster()` - Returns a data frame with the results per
    x/y intersection
4.  `db_compute_raster2()` - Returns same as `db_compute_raster()`
    function plus the coordinates of the x/y boxes
5.  `db_compute_boxplot()` - Returns a data frame with boxplot
    calculations

``` r
db_flights |>
  db_compute_bins(arr_delay) 
#> # A tibble: 28 × 2
#>    arr_delay  count
#>        <dbl>  <dbl>
#>  1      95.1   7890
#>  2     321.     232
#>  3     729.       5
#>  4     548.       6
#>  5     684.       1
#>  6     -40.7 207999
#>  7      NA     9430
#>  8     276.     425
#>  9     457.      23
#> 10     593        6
#> # ℹ 18 more rows
```
…
