…
``` r
db_flights |>
  db_compute_bins(arr_delay) 
#> # A tibble: 28 × 2
#>    arr_delay  count
#>        <dbl>  <dbl>
#>  1      95.1   7890
#>  2     321.     232
#>  3     729.       5
#>  4     548.       6
#>  5     684.       1
#>  6     774.       6
#>  7    1000.       1
#>  8     -40.7 207999
#>  9      NA     9430
#> 10     276.     425
#> # ℹ 18 more rows
```
…
