…
## Examples

``` r
# \dontrun{
library(DBI)
library(dplyr)
con <- dbConnect(duckdb::duckdb(), ":memory:")
db_faithful <- copy_to(con, faithful, "faithful")

# Returns a 100x100 grid of record count of intersections of eruptions and waiting
db_faithful |>
  db_compute_raster(eruptions, waiting)
#> # A tibble: 246 × 3
#>    eruptions waiting `n()`
#>        <dbl>   <dbl> <dbl>
#>  1      3.60    78.5     1
#>  2      4.68    87.5     1
#>  3      3.60    84.9     1
#>  4      1.92    51.0     1
#>  5      4.33    84.9     1
#>  6      1.74    46.7     2
#>  7      4.68    82.8     1
#>  8      1.74    61.6     1
#>  9      1.95    54.7     1
#> 10      4.05    75.9     1
#> # ℹ 236 more rows

# Returns a 50x50 grid of eruption averages of intersections of eruptions and waiting
db_faithful |>
  db_compute_raster(eruptions, waiting, fill = mean(eruptions), resolution = 50)
#> # A tibble: 220 × 3
#>    eruptions waiting `mean(eruptions)`
#>        <dbl>   <dbl>             <dbl>
#>  1      2.23    61.0              2.28
#>  2      4.68    87.5              4.7 
#>  3      1.74    61.0              1.75
#>  4      4.75    83.3              4.8 
#>  5      4.47    73.7              4.53
#>  6      1.95    54.7              1.98
#>  7      4.05    75.9              4.08
#>  8      4.4     78.0              4.43
#>  9      4.33    79.0              4.35
#> 10      4.54    83.3              4.57
#> # ℹ 210 more rows
…
